id,label,feature1,feature2
0,a,0.3,3
1,a,0.2,2
2,a,0.1,1
3,a,0.2,2
4,a,0.3,3
5,a,0.2,2
6,b,0.4,4
7,b,0.5,5
8,b,0.6,6
9,b,0.7,7
10,b,0.8,8
11,c,1.1,1
12,c,1.3,3
13,c,1.2,4
14,c,1.4,4
15,c,1.2,2
16,a,0.1,1
17,a,0.3,3
18,a,0.4,4
19,a,0.5,5
20,a,0.1,1
21,b,0.6,6
22,b,0.7,7
23,b,0.8,8
24,b,0.9,9
25,b,0.5,5
26,c,1.2,2
27,c,1.3,3
28,c,1.4,4
29,c,1.5,5
30,c,1.6,6
